<?xml version="1.0" encoding="utf-8"?>
<svg xmlns="http://www.w3.org/2000/svg"
	xmlns:xlink="http://www.w3.org/1999/xlink"
	width="24px" height="32px" viewBox="0 0 24 32">
<path fillRule="evenodd" d="M 22.08 18.51C 22.08 18.51 14.1 30.86 14.1 30.86 13.66 31.54 12.88 32 12 32 11.12 32 10.34 31.54 9.9 30.86 9.9 30.86 1.91 18.51 1.91 18.51 0.7 16.63-0 14.4-0 12-0 5.37 5.37-0 12-0 18.63-0 24 5.37 24 12 24 14.4 23.3 16.63 22.08 18.51ZM 12 3C 7.04 3 3 7.04 3 12 3 13.74 3.5 15.42 4.43 16.88 4.43 16.88 12 28.58 12 28.58 12 28.58 19.57 16.88 19.57 16.88 20.5 15.42 21 13.74 21 12 21 7.04 16.96 3 12 3ZM 12 17C 9.24 17 7 14.76 7 12 7 9.24 9.24 7 12 7 14.76 7 17 9.24 17 12 17 14.76 14.76 17 12 17ZM 12 10C 10.9 10 10 10.9 10 12 10 13.1 10.9 14 12 14 13.1 14 14 13.1 14 12 14 10.9 13.1 10 12 10Z" fill="rgb(219,219,219)"/></svg>